%YAML 1.1
%TAG !u! tag:unity3d.com,2011:
--- !u!1045 &1
EditorBuildSettings:
  m_ObjectHideFlags: 0
  serializedVersion: 2
  m_Scenes:
  - enabled: 1
    path: Assets/Scenes/StartMenu.unity
    guid: 5af31826998199b47b6a4b9105963698
  - enabled: 1
    path: Assets/Scenes/PauseMenu.unity
    guid: 555217def55496b4084ac27b14d60d09
  - enabled: 1
    path: Assets/Scenes/MainScene.unity
    guid: bed0c0da2ee76e74198ab3e709a18cd9
  m_configObjects: {}
